Kan_Analysis
…
Exploratory data analysis

The number of response per participant.

main_analysis_rt_data %>% 
  count(participant_id)

## # A tibble: 132 x 2
##    participant_id     n
##             <dbl> <int>
##  1            109    32
##  2           1010    34
##  3           1012    42
##  4           1013    40
##  5           1014    30
##  6           1015    30
##  7           1016    36
##  8           1017    37
##  9           1018    14
## 10           1021    32
## # ... with 122 more rows
…
## `summarise()` regrouping output by 'participant_id', 'is_congruent' (override with `.groups` argument)

The number of conditions per participant. Because we excluded the incorrect trials, it can happen that a participant does no have reaction time responses from all the 4 conditions.

main_analysis_rt_aggregate %>% 
  count(participant_id) %>% 
  arrange(n)

## # A tibble: 132 x 2
##    participant_id     n
##    <fct>          <int>
##  1 109                4
##  2 1010               4
##  3 1012               4
##  4 1013               4
##  5 1014               4
##  6 1015               4
##  7 1016               4
##  8 1017               4
##  9 1018               4
## 10 1021               4
## # ... with 122 more rows
…
Exploratory data analysis

The number of response per participant.

main_analysis_acc_data %>% 
  group_by(participant_id) %>% 
  count()

## # A tibble: 132 x 2
## # Groups:   participant_id [132]
##    participant_id     n
##             <dbl> <int>
##  1            109    42
##  2           1010    42
##  3           1012    42
##  4           1013    42
##  5           1014    42
##  6           1015    42
##  7           1016    42
##  8           1017    42
##  9           1018    42
## 10           1021    42
## # ... with 122 more rows
…
## See spec(...) for full column specifications.

Exploratory data analysis

The number of response per participant.

main_analysis_rt_data %>% 
  count(participant_id)

## # A tibble: 163 x 2
##    participant_id     n
##    <chr>          <int>
##  1 0001              33
##  2 0002              41
##  3 0003              33
##  4 0004              24
##  5 0005              23
##  6 0006              36
##  7 0007              45
##  8 0008              33
##  9 0009              39
## 10 0010              56
## # ... with 153 more rows
…
Exploratory data analysis

The number of trials per participant.

main_analysis_acc %>% 
  group_by(participant_id) %>% 
  count()

## # A tibble: 168 x 2
## # Groups:   participant_id [168]
##    participant_id     n
##    <chr>          <int>
##  1 0001              42
##  2 0002              42
##  3 0003              46
##  4 0004              49
##  5 0005              44
##  6 0006              44
##  7 0007              46
##  8 0008              42
##  9 0009              46
## 10 0010              74
## # ... with 158 more rows
…
The number and frequency of correct trials. There are different number of trials per participant because each participant was assigned to a different set of trails (out of 6) randomly. These sets contained different number of test trials that satisfy the criteria to be the part of the analysis.

main_analysis_acc %>% 
  group_by(participant_id, is_correct) %>% 
  count() %>% 
  group_by(participant_id) %>% 
  mutate(sum_n = sum(n),
         freq = n / sum_n * 100) %>%
  filter(is_correct == 1L)

## # A tibble: 163 x 5
## # Groups:   participant_id [163]
##    participant_id is_correct     n sum_n  freq
##    <chr>               <dbl> <int> <int> <dbl>
##  1 0001                    1    33    42  78.6
##  2 0002                    1    41    42  97.6
##  3 0003                    1    33    46  71.7
##  4 0004                    1    24    49  49.0
##  5 0005                    1    23    44  52.3
##  6 0006                    1    36    44  81.8
##  7 0007                    1    45    46  97.8
##  8 0008                    1    33    42  78.6
##  9 0009                    1    39    46  84.8
## 10 0010                    1    56    74  75.7
## # ... with 153 more rows
…
## See spec(...) for full column specifications.

Exploratory data analysis

The number of response per participant.

main_analysis_rt_data %>% 
  group_by(participant_id) %>% 
  count()

## # A tibble: 80 x 2
## # Groups:   participant_id [80]
##    participant_id     n
##    <chr>          <int>
##  1 0001              67
##  2 0002              61
##  3 0003              39
##  4 0005              36
##  5 0006              65
##  6 0008              28
##  7 0010              36
##  8 0011              45
##  9 0013              35
## 10 0014              40
## # ... with 70 more rows
…
Exploratory data analysis

The number and frequency of correct trials.

main_analysis_acc %>% 
  group_by(participant_id, is_correct) %>% 
  count() %>% 
  group_by(participant_id) %>% 
  mutate(sum_n = sum(n),
         freq = n / sum_n * 100) %>%
  filter(is_correct == 1L)

## # A tibble: 80 x 5
## # Groups:   participant_id [80]
##    participant_id is_correct     n sum_n  freq
##    <chr>               <dbl> <int> <int> <dbl>
##  1 0001                    1    67    74  90.5
##  2 0002                    1    61    74  82.4
##  3 0003                    1    39    46  84.8
##  4 0005                    1    36    42  85.7
##  5 0006                    1    65    74  87.8
##  6 0008                    1    28    42  66.7
##  7 0010                    1    36    44  81.8
##  8 0011                    1    45    49  91.8
##  9 0013                    1    35    49  71.4
## 10 0014                    1    40    42  95.2
## # ... with 70 more rows
…
